=== Health-Diet 搜索API 修复完成测试报告 ===

测试时间: Tue Mar 17 00:24:38 CST 2026
服务器地址: http://127.0.0.1:3001

=== 1. 基础搜索测试 ===
{"success":true,"data":{"keyword":"红枣","filters":{"category":null,"difficulty":null},"list":[{"id":"49","name":"黑木耳红枣汤","cover_image":"https://loremflickr.com/600/400/food,recipe?lock=49","crowd_tags":["中老年","女性"],"efficacy_tags":["降压降脂","补气养血"],"rating":"4.7","view_count":4359,"favorite_count":482,"comment_count":51},{"id":"17","name":"当归红枣乌鸡汤","cover_image":"https://loremflickr.com/600/400/food,recipe?lock=17","crowd_tags":["女性","中老年"],"efficacy_tags":["补气养血"],"rating":"4.7","view_count":1178,"favorite_count":381,"comment_count":73},{"id":"19","name":"枸杞桂圆红枣茶","cover_image":"https://loremflickr.com/600/400/food,recipe?lock=19","crowd_tags":["女性","中老年","白领"],"efficacy_tags":["补气养血","安神助眠"],"rating":"4.3","view_count":3611,"favorite_count":41,"comment_count":30},{"id":"2","name":"南瓜红枣粥","cover_image":"https://loremflickr.com/600/400/food,recipe?lock=2","crowd_tags":["中老年","女性","儿童"],"efficacy_tags":["健脾养胃","补气养血"],"rating":"4.3","view_count":2267,"favorite_count":237,"comment_count":81}],"pagination":{"page":1,"pageSize":20,"total":4,"totalPages":1}}}

=== 2. 分页测试 ===
{"success":true,"data":{"keyword":"养生","filters":{"category":null,"difficulty":null},"list":[{"id":"44","name":"蒲公英茶","cover_image":"https://loremflickr.com/600/400/food,recipe?lock=44","crowd_tags":["中老年","通用"],"efficacy_tags":["清热解毒"],"rating":"4.9","view_count":3636,"favorite_count":441,"comment_count":20},{"id":"41","name":"苦瓜排骨汤","cover_image":"https://loremflickr.com/600/400/food,recipe?lock=41","crowd_tags":["中老年","通用"],"efficacy_tags":["清热解毒","降压降脂"],"rating":"4.9","view_count":2346,"favorite_count":54,"comment_count":74},{"id":"6","name":"陈皮瘦肉粥","cover_image":"https://loremflickr.com/600/400/food,recipe?lock=6","crowd_tags":["中老年","儿童"],"efficacy_tags":["健脾养胃"],"rating":"4.9","view_count":625,"favorite_count":389,"comment_count":50},{"id":"53","name":"虫草花炖排骨","cover_image":"https://loremflickr.com/600/400/food,recipe?lock=53","crowd_tags":["中老年","通用"],"efficacy_tags":["增强免疫"],"rating":"4.8","view_count":4653,"favorite_count":476,"comment_count":74},{"id":"23","name":"黑芝麻糊","cover_image":"https://loremflickr.com/600/400/food,recipe?lock=23","crowd_tags":["中老年","女性","通用"],"efficacy_tags":["补气养血","美容养颜"],"rating":"4.8","view_count":4629,"favorite_count":332,"comment_count":46}],"pagination":{"page":2,"pageSize":5,"total":69,"totalPages":14}}}

=== 3. 分类筛选测试 ===
{"success":true,"data":{"keyword":"养生","filters":{"category":"中老年","difficulty":null},"list":[{"id":"27","name":"柏子仁粥","cover_image":"https://loremflickr.com/600/400/food,recipe?lock=27","crowd_tags":["中老年","白领"],"efficacy_tags":["安神助眠"],"rating":"5.0","view_count":2614,"favorite_count":335,"comment_count":94},{"id":"48","name":"决明子茶","cover_image":"https://loremflickr.com/600/400/food,recipe?lock=48","crowd_tags":["中老年","白领"],"efficacy_tags":["降压降脂","清热解毒"],"rating":"5.0","view_count":701,"favorite_count":251,"comment_count":17},{"id":"9","name":"川贝雪梨汤","cover_image":"https://loremflickr.com/600/400/food,recipe?lock=9","crowd_tags":["儿童","中老年","通用"],"efficacy_tags":["润肺止咳"],"rating":"4.9","view_count":4812,"favorite_count":32,"comment_count":66},{"id":"34","name":"燕窝炖雪梨","cover_image":"https://loremflickr.com/600/400/food,recipe?lock=34","crowd_tags":["女性","中老年"],"efficacy_tags":["美容养颜","润肺止咳"],"rating":"4.9","view_count":4346,"favorite_count":429,"comment_count":48},{"id":"8","name":"生姜红糖暖胃汤","cover_image":"https://loremflickr.com/600/400/food,recipe?lock=8","crowd_tags":["女性","中老年"],"efficacy_tags":["健脾养胃","补气养血"],"rating":"4.9","view_count":3653,"favorite_count":161,"comment_count":85},{"id":"44","name":"蒲公英茶","cover_image":"https://loremflickr.com/600/400/food,recipe?lock=44","crowd_tags":["中老年","通用"],"efficacy_tags":["清热解毒"],"rating":"4.9","view_count":3636,"favorite_count":441,"comment_count":20},{"id":"41","name":"苦瓜排骨汤","cover_image":"https://loremflickr.com/600/400/food,recipe?lock=41","crowd_tags":["中老年","通用"],"efficacy_tags":["清热解毒","降压降脂"],"rating":"4.9","view_count":2346,"favorite_count":54,"comment_count":74},{"id":"6","name":"陈皮瘦肉粥","cover_image":"https://loremflickr.com/600/400/food,recipe?lock=6","crowd_tags":["中老年","儿童"],"efficacy_tags":["健脾养胃"],"rating":"4.9","view_count":625,"favorite_count":389,"comment_count":50},{"id":"53","name":"虫草花炖排骨","cover_image":"https://loremflickr.com/600/400/food,recipe?lock=53","crowd_tags":["中老年","通用"],"efficacy_tags":["增强免疫"],"rating":"4.8","view_count":4653,"favorite_count":476,"comment_count":74},{"id":"23","name":"黑芝麻糊","cover_image":"https://loremflickr.com/600/400/food,recipe?lock=23","crowd_tags":["中老年","女性","通用"],"efficacy_tags":["补气养血","美容养颜"],"rating":"4.8","view_count":4629,"favorite_count":332,"comment_count":46},{"id":"54","name":"灵芝煲鸡汤","cover_image":"https://loremflickr.com/600/400/food,recipe?lock=54","crowd_tags":["中老年","通用"],"efficacy_tags":["增强免疫","安神助眠"],"rating":"4.8","view_count":4607,"favorite_count":165,"comment_count":73},{"id":"10","name":"银耳莲子羹","cover_image":"https://loremflickr.com/600/400/food,recipe?lock=10","crowd_tags":["女性","中老年"],"efficacy_tags":["润肺止咳","美容养颜"],"rating":"4.8","view_count":3611,"favorite_count":397,"comment_count":93},{"id":"56","name":"花胶炖鸡汤","cover_image":"https://loremflickr.com/600/400/food,recipe?lock=56","crowd_tags":["中老年","女性"],"efficacy_tags":["增强免疫","美容养颜"],"rating":"4.8","view_count":2114,"favorite_count":105,"comment_count":24},{"id":"28","name":"百合麦冬汤","cover_image":"https://loremflickr.com/600/400/food,recipe?lock=28","crowd_tags":["中老年","女性"],"efficacy_tags":["安神助眠","润肺止咳"],"rating":"4.8","view_count":2071,"favorite_count":418,"comment_count":29},{"id":"12","name":"枇杷叶瘦肉汤","cover_image":"https://loremflickr.com/600/400/food,recipe?lock=12","crowd_tags":["中老年","儿童"],"efficacy_tags":["润肺止咳"],"rating":"4.8","view_count":1852,"favorite_count":139,"comment_count":46},{"id":"47","name":"山楂荷叶茶","cover_image":"https://loremflickr.com/600/400/food,recipe?lock=47","crowd_tags":["中老年","通用"],"efficacy_tags":["降压降脂"],"rating":"4.8","view_count":787,"favorite_count":241,"comment_count":84},{"id":"55","name":"人参枸杞茶","cover_image":"https://loremflickr.com/600/400/food,recipe?lock=55","crowd_tags":["中老年","白领"],"efficacy_tags":["增强免疫","补气养血"],"rating":"4.8","view_count":191,"favorite_count":155,"comment_count":25},{"id":"31","name":"远志莲子汤","cover_image":"https://loremflickr.com/600/400/food,recipe?lock=31","crowd_tags":["中老年","通用"],"efficacy_tags":["安神助眠","健脾养胃"],"rating":"4.7","view_count":4628,"favorite_count":366,"comment_count":49},{"id":"49","name":"黑木耳红枣汤","cover_image":"https://loremflickr.com/600/400/food,recipe?lock=49","crowd_tags":["中老年","女性"],"efficacy_tags":["降压降脂","补气养血"],"rating":"4.7","view_count":4359,"favorite_count":482,"comment_count":51},{"id":"66","name":"韭菜炒虾仁","cover_image":"https://loremflickr.com/600/400/food,recipe?lock=66","crowd_tags":["中老年","男性","通用"],"efficacy_tags":["补肾壮阳"],"rating":"4.7","view_count":3339,"favorite_count":370,"comment_count":21}],"pagination":{"page":1,"pageSize":20,"total":61,"totalPages":4}}}

=== 4. 热门搜索 ===
{"success":true,"data":["红枣","test","tea","yangsheng","xyz123","hongzao","health","bu","<script>alert(1)</script>","<script>"]}

=== 5. 搜索建议 ===
{"success":true,"data":["红豆薏米水","红豆薏米补血粥"]}

=== 测试完成 ===
